'- Palitos , ZX-81 , Microcomputador Jogos , Página 51
'- status não informado pelo Digitador
'- Digitador desconhecido

10 REM
20 REM         PALITOS
30 REM  PARA A LINHA SINCLAIR
40 REM
50 LET P=1
60 LET B=2
70 LET J=3
80 CLS
90 PRINT "QUAL O SEU NOME"
100 INPUT Z$
110 CLS
120 LET D=0
130 LET C=D
140 PRINT "OUTRA PARTIDA"
150 DIM A(J)
160 FOR E=P TO J
170 LET A(E)=INT (RND*7)+P
180 NEXT E
190 IF A(P)=A(B) OR A(B)=A(J) OR A(P)=A(J) THEN GOTO 160
200 GOSUB 520
210 IF E=5 THEN GOTO 160
220 GOSUB 670
230 PRINT "VOCE JOGA,","LINHA ?:   ";
240 INPUT F
250 PRINT F,,"PALITOS ?: ";
260 INPUT H
270 PRINT H
280 PAUSE 100
290 CLS
300 IF F<P OR F>J OR H<P THEN GOTO 570
310 LET A(F)=A(F)-H
320 IF A(F)<0 THEN GOTO 570
330 IF A(1)+A(2)+A(3)=0 THEN GOTO 580
340 GOSUB 670
350 PRINT "EU JOGO."
360 LET Q=0
370 PAUSE 100
380 CLS
390 FOR X=P TO 7
400 FOR E=P TO J
410 LET A(E)=A(E)-X
420 IF A(E)<0 THEN GOTO 470
430 IF Q=P THEN GOTO 220
440 GOSUB 520
450 IF E=5 THEN GOTO 220
460 IF N=0 THEN GOTO 600
470 LET A(E)=A(E)+X
480 NEXT E
490 NEXT X
500 LET Q=P
510 GOTO 390
520 LET N=A(P)+A(B)+A(J)
530 LET N=N+(INT (A(P)/2)+INT (A(B)/2)+INT (A(J)/2))*8
540 LET N=N+(INT (A(P)/4)+INT (A(B)/4)+INT (A(J)/4))*80
550 IF (N=222)+(N=220)+(N=202)+(N=200)+(N=22)+(N=20)+(N=J)+(N=P)=1 THEN LET E=5
560 RETURN
570 PRINT "--LANCE INVALIDO--"
580 LET D=D+P
590 GOTO 610
600 LET C=C+P
610 PRINT "PONTOS"
620 PRINT Z$;"   ";C
630 PAUSE 180
640 IF D=6 OR C=5 THEN GOTO 80
650 CLS
660 GOTO 140
670 PRINT
680 FOR E=P TO J
690 PRINT E;" ";
700 IF A(E)=0 THEN GOTO 740
710 FOR X=P TO A(E)
720 PRINT "\ : ";
730 NEXT X
740 PRINT
750 PRINT
760 NEXT E
770 RETURN

