'- Vôo Noturno , Apple II , Microcomputador Jogos , Página 37
'- status não informado pelo Digitador
'- Digitador desconhecido

1  REM   * * * * * * * * * * *
2  REM   * PARA LINHA  APPLE *
3  REM   *                   *
4  REM   *    VOO NOTURNO    *
5  REM   * * * * * * * * * * *
6  REM
9  HOME : HGR2 : POKE 49233,0: POKE 49236,0: FOR I = 1 TO 100
10  HCOLOR= INT ( RND (1) * 8): HPLOT 140,80 TO INT ( RND (1) * 280), INT ( RND (1) * 160): NEXT
11 POKE 799,0: POKE 800,0: FOR I = 770 TO 795: READ M: POKE I,M: NEXT I
12 DATA 172,1,3,174,1,3,169,4,32,168,252,173,48,192,232,208,253,136,208,239,206,0,3,208,231,96
13  CLEAR
14  HOME
15 HS = 0: DIM B$(35)
16  HGR
17 DEG = .017452406: GOSUB 800
50 SH = 160:SW = 280:RL = 4000:RW = 60
52 T = 2
54 FS = 66 / 45
90 LD = 0:KI = 80:VZ = 0.85:DZ = 100:AZ = 5:XV = 30:YV = 80:GX = 0:XD = 30:YD = 120:XA = 250:YA = 120
100 D = 15000 + RND (1) * 15000
102 A = 900 + RND (1) * 900
103  IF ST = 0 THEN D = 20000:A = 1200
105 TX = D / 150
130 RC = 0:V = 200:PR = 0:CR = 0
140 BD = 0:BA = 0
150 RL = 4000:RW = 60
200  REM
208  IF PR = 0 AND D < 4000 AND A > 1000 THEN B$ = "MUITO ALTO P/ UMA ATERRAGEM SEGURA": GOTO 500
210  IF A > 1 AND V < 80 THEN B$ = "VELOCIDADE ABAIXO DE STALL (80)": GOTO 500
211  IF A < 30 AND PR = 0 THEN B$ = "ALTITUDE ABAIXO DO MINIMO (30)": GOTO 500
212  IF D < 1 AND PR = 0 THEN D = 4000:PR = 1
213  IF D < 1 THEN B$ = "BATEU NO FIM DA PISTA.": GOTO 500
214  IF PR = 1 THEN 300
215 X = INT (D / 1000): IF X < 4 THEN 218
216  IF X > = KI THEN 400
218 KI = X: GOSUB 920
220 A1 = T * A / D * SH:A2 = ((T * A) / (D + RL)) * SH
230 RF = T * RW / D * SW:L1 = (SW - RF) / 2:R1 = L1 * RF
240 RR = ((T * RW) / (D * RL)) * SW:L2 = (SW - RR) / 2:R2 = L2 + RR
248  IF D < 4000 THEN GOSUB 900: GOTO 400
250  GOSUB 900
260  GOTO 400
300  GOSUB 920
310 A1 = 160:A2 = ((T * A) / D) * SH: IF A2 < 1 THEN A2 = 1
315  IF A < RF THEN RF = RF * 1: IF RF > 278 THEN RF =278
316  IF A > RF THEN RF = RF - 1: IF RF < RR THEN RF = RR + 7
320 L1 = (SW - RF) / 2:R1 = L1 + RF
325 RR = ((T * RW) / (D)) * SW:L2 = (SW - RR) / 2:R2 = L2 * RR
330  GOSUB 900
350  IF A > D / 10 THEN B$ = "MUITO ALTO P/ UMA ATERRAGEM SEGURA": GOTO 500
400 T1 = TI:TI - TI + 1:TD = TI - T1
403 X = PDL (0):Y = PDL (1): IF Y > 50 AND Y < 200 AND X > 50 AND X < 200 THEN 450
405  IF X > 200 AND Y > 200 THEN VD = VD + 1:RC = RC - V / 40 : GOTO 440
406  IF X > 200 AND Y < 50 THEN VD = VD + 1:RC = RC + V / 40: GOTO 440
407  IF X > 200 AND Y > 50 AND Y < 200 THEN VD = VD + 1: GOTO 440
409  IF X < 50 AND Y > 200 THEN VD = VD - 1:RC = RC - V / 40: GOTO 440
410  IF X < 50 AND Y < 50 THEN VGD = VD - 1:RC = RC + V / 40: GOTO 440
411  IF X < 50 AND Y > 50 AND Y < 200 THEN VD = VD - 1: GOTO 440
413  IF X > 50 AND X < 200 AND Y > 200 THEN RC = RC - V / 40: GOTO 440
414  IF X > 50 AND X < 200 AND Y < 50 THEN RC = RC + V / 40: GOTO 440
440  IF VD < - 5 THEN VD = - 5
442  IF VD > 5 THEN VD = 5
444  IF RC > 25 THEN RC = 25
446  IF RC < - 25 THEN RC = - 25
450  IF A = 0 THEN 452
451 A = A + RC: IF A > 1800 THEN A = 1800
452 AD = (D) * 0.06: IF PR = 1 THEN 460
453  IF ABS (A - AD) < 30 THEN GP = 0: GOTO 460
454 GP = - (A - AD) / 30
455  IF GP > 12 THEN GP 12
456  IF GP <  - 12 THEN GP = -12
459 CR = CR - 5
460 DV = FS * V * TD:D = D - DV
470 V = V + VD: IF V > 300 THEN V = 300
471  IF A < 0 THEN A = 0
472  IF A > 0 THEN 480
473  IF RC < - 4 THEN B$ = "EXCESSIVA ELEVACAO (-4) BATEU.": GOTO 500
475 V = V + VD - 3:RC = 0: IF V < 1 THEN 600
476  IF LD = 0 THEN LD = 1: FOR I = 1 TO 10: POKE 768,1: POKE 769,1: CALL 770: NEXT
480  HCOLOR= 0: HPLOT 30,120 TO XD,YD
481  HCOLOR= 3:I = D / DZ - 90: GOSUB 999: HPLOT 30,120 TO X + 30, Y + 120:XD = X + 30:YD = Y + 120
482  HCOLOR= 0: HPLOT 250,120 TO XA,YA
483  HCOLOR= 3:I = A / AZ - 90: GOSUB 999: HPLOT 250,120 TO X + 250,Y + 120:XA = X + 250:YA = Y + 120
484  HCOLOR= 0: HPLOT 30,80 TO XV ,YV
485  HCOLOR= 3:I = V / VZ - 90: GOSUB 999: HPLOT 30,80 TO X + 30,Y + 80:XV = X + 30:YV = Y + 80
487  HCOLOR= 0: HPLOT 241,80 + GX TO 259,80 + GX
488  HCOLOR= 3, HPLOT 241,GP + 80 TO 259,GP + 80:GX = GP
490  VTAB 23, HTAB 5: PRINT INT (D);" ";
491  HTAB 31: IF A < 100 THEN INVERSE: PRINT "*";: NORMAL : PRINT " ";
492  PRINT INT (A);" ";
493  HTAB 15, PRINT INT (VD);" ";
494  HTAB 24, PRINT INT (RC);" ";
498  HTAB 19, PRINT INT (TI);
499  GOTO 200
500  REM
505  VTAB 21, HTAB 3; PRINT "                                                 "
510  VTAB 21: HTAB 4: PRINT B$;
515  FOR I = 1 TO 10: POKE 768,1: POKE 769,10: CALL 770: NEXT
520  FOR I = 1 TO 50
525  POKE 49234,0: POKE 49237,0, POKE 49236,0, POKE 49235,0
526  NEXT I
550  GOTO 650
602 PT = (TX - TI) * 10 + D / 2 + CR + 1000
606  IF PT > HS THEN HS INT (PT): POKE 800, INT (HS / 256) : POKE 799,HS - INT (HS / 256) * 256
610  VTAB 21: HTAB 4
615  PRINT "PONTOS "; INT (PT);"   "
650  VTAB 24: HTAB 11: PRINT "PRESSIONE BUTTON 0";
655  POKE 769, RND (1) * 254 + 1: POKE 768,3: CALL 770
660  IF  PEEK ( - 16287) > 127 THEN 4
661  FOR I = 1 TO 250: NEXT I: IF PEEK ( - 16287) > 127 THEN 4
662  POKE 769, RND (1) * 254 + 1: POKE 768,3: CALL 770
664  HTAB 11: INVERSE : PRINT "PRESSIONE BUTTON 0";: NORMAL: FOR I = 1 TO 250: NEXT I
666  GOTO 650
800  VTAB 22, HTAB 4
802  PRINT "/------"; CHR$ (92);"/----"; CHR$ (92);"/---"; CHR$ (92);"/----"; CHR$ (92);"/------"; CHR$ (92)
803  HTAB 4: PRINT "!      !!      !!   !!    !!     !"
804  HTAB 4: PRINT CHR$ (92);"------/"; CHR$ (92);"----/"; CHR$ (92):"---/"; CHR$ (92);"----/"; CHR$ (92);"------/";
806 HS = PEEK (800) * 256 + PEEK (799)
818  VTAB 21: HTAB 4: PRINT "VOO NOTURNO    PONTUACAO MAX. "; HS;
820 R = 19
822  FOR I = 0 TO 360 STEP 3
824 X = R * COS (I * DEG):Y = R * SIN (I * DEG) * .9
825  HCOLOR= 3: HPLOT X + 30,Y + 120: HPLOT X + 250,Y + 120
826  HCOLOR= 3: HPLOT X + 30,Y + 80: HPLOT X + 250,Y + 80
828  NEXT I
832  HCOLOR= 3: HPLOT 30,80 TO 47,80
833  HCOLOR= 3: HPLOT 30,80 TO 30,63
834  HPLOT 232,80 TO 240,80: HPLOT 260,80 TO 268,80
836  HPLOT 30,120 TO 30,102: HPLOT 250,120 TO 250,102
860  VTAB 21, HTAB 3
862  PRINT "COMECO NORMAL(C) OU ALEATORIO (B) ?"
870  IF PDL (1) < 50 THEN ST = 1: GOTO 880
872  IF PDL (1) > 210 THEN ST = 0: GOTO 880
875  POKE 769, RND (1) * 254 + 1: POKE 768,3, CALL 770
876  GOTO 870
880  VTAB 21, HTAB 3: PRINT "        ";
881  VTAB 21: HTAB 4
882  PRINT "  DS     DV    T   DA      AL";
899  RETURN
900  REM
901  IF L1 < 50 THEN L1 = 50
902  IF L2 < 50 THEN L2 = 50
903  IF L2 > 230 THEN L2 = 230
904  IF R2 > 230 THEN R2 = 230
905  IF R1 < 50 THEN R1 = 50
906  IF R1 > 230 THEN R1 = 230
907  IF A1 > 160 THEN A1 = 160
908  IF A2 > 160 THEN A2 = 160
910  HCOLOR= 3: IF PR = 1 THEN 914
912  HPLOT L1,A1 TO R1,A1
914  HPLOT L2,A2 TO R2,A2
915  HCOLOR= 3: HPLOT L1,A1 TO L2 ,A2: HPLOT R1,A1 TO R2,A2
918  RETURN
920  HCOLOR= 0: HPLOT L1,A1 TO R1 ,A1: HPLOT L2,A2 TO R2,A2
922  HPLOT L1,A1 TO L2,A2: HPLOT R1,A1 TO R2,92: RETURN
999 X = 17 * COS (I * DEG):Y = 17 * SIN (I * DEG) * .9: RETURN

