'- Bombas , TK 90X , Microcomputador Jogos , Página 35
'- status não informado pelo Digitador
'- Digitador desconhecido

10 REM ***********************
20 REM * PROGRAMA PARA TK 90X*
30 REM * PROGRAMA BOMBAS      *
40 REM ***********************
50 CLS : GO SUB 9000: GO SUB 8000
60 FOR a=0 TO 20
70 FOR b=0 TO 31
80 PRINT AT a,b;" \A\B"
90 IF SCREEN$ (a,b+3)<>" " THEN GO TO 270
100 IF INKEY$<>"" THEN GO SUB 160
110 FOR p=1 TO 8: NEXT p
120 NEXT b: NEXT a
130 PRINT AT 10,10; FLASH 1; BRIGHT 1;"Aterrisagem perfeita"
140 INPUT BRIGHT 1; FLASH 1; INVERSE 1;"Aperte ENTER para jogar de novo "; LINE a$: RUN
150 STOP
160 LET b1=b
170 FOR x=a TO 20
180 PRINT AT x-1,b1;" "
190 PRINT AT x,b1; INK 2;"\C"
200 LET b=b+1
210 IF b>31 THEN LET a=a+1: LET b=0
220 PRINT AT a,b;" \A\B": IF SCREEN$ (a,b+3)<>" " THEN GO TO 270
230 BEEP .008,-(x-20)
240 NEXT x
250 PRINT AT x-1,b1;" "
260 RETURN
270 FOR c=a TO 19: PRINT AT c,b+1;"   ";AT c+1,b+1;" \A\B"
280 BEEP .05,-(c+2): NEXT c
282 PAUSE 100
285 PRINT AT c+1,b+1;"   ": PRINT FLASH 1;AT 19,b+1*(b<31);"\F\G"; FLASH 1;AT 20,b+1*(b<31);"\H\I"
286 PAUSE 200
290 PRINT AT 0,11; FLASH 1; BRIGHT 1;"";AT 0,9; INVERSE 1;"Pontuacao";(a*10)+b
300 GO TO 140
8000 FOR k=0 TO 31
8010 LET r=INT (RND*6)+2: LET j=INT (RND*5)+10
8020 PRINT AT j,k; INK r;"\D"
8030 FOR j=j+1 TO 20
8040 PRINT AT j,K; INK r;"\E"
8050 NEXT j: NEXT k
8055 PRINT #1; INK 6; BRIGHT 1; AT 0,0;"Aperte uma tecla p/ soltar bomba"
8060 PLOT 0,7: DRAW 255,0: RETURN
9000 BORDER 0: PAPER 0: INK 7: CLS
9010 FOR u=USR "a" TO USR "i"+7
9020 READ user: POKE u,user
9030 NEXT u: RETURN
9040 DATA 199,225,242,255,127,63,64,0
9050 DATA 252,32,66,250,255,250,34,0
9060 DATA 0,36,60,24,60,60,24,0
9070 DATA 0,8,28,63,127,73,73,127
9080 DATA 127,73,73,127,127,73,73,127
9090 DATA 0,70,66,146,202,21,123,11
9100 DATA 33,58,4,74,81,40,196,240
9110 DATA 3,255,5,13,117,117,117,138
9120 DATA BIN 11001111,240,191,172,163,163,81,0


