'- Invasores , ZX-81 , Microcomputador Jogos , Página 97
'- status não informado pelo Digitador
'- Digitador desconhecido

10 REM                                        INVASORES                  PARA LINHA SINCLAIR
11 LET P=0
12 REM LINHA 11 NAO EXISTE NO CODIGO ORIGINAL, FALTAVA VARIAVEL P
20 GOTO 1000
30 GOSUB 930
40 SLOW
50 DIM S$(28)
60 LET MI=0
70 LET B=0
80 LET I=0
90 LET A=P/270-10*INT (P/2700)
100 LET N=1
110 REM   MATRIZ INVASORES
120 DIM N$(5,28)
130 LET N$(1)="(O) (O) (O) (O) (O) (O)"
140 LET N$(2)="-O- -O- -O- -O- -O- -O-"
150 LET N$(3)="<O> <O> <O> <O> <O> <O>"
160 LET N$(4)="=O= =O= =O= =O= =O= =O="
170 LET N$(5)=">O< >O< >O< >O< >O< >O<"
180 IF P>=2700 THEN LET N$(1)=" O O O O O O O O O O"
190 REM   PLACAR
200 PRINT AT 0,1;"PONTOS:";P,C$;" "
210 REM   ACAO CENTRAL
220 LET B=B+N
230 IF B=1 OR B=9 THEN LET A=A+2
240 IF B=9 THEN LET N=-1
250 IF B=1 THEN LET N=B
260 LET S=INT (RND*3)
270 LET H=18
280 LET I$=N$(1)
290 IF N$(2)=S$ THEN GOTO 370
300 LET H=10
310 PRINT AT 20,X-1;" \ : ";AT 21,X.1;" \::\:  "
320 REM   IMPRIME INVASORES
330 LET I$=I$+((S$+"        "+N$(2)) AND N$(2)>S$)+((S$+"        "+N$(3)) AND N$(3)>S$)+((S$+"        "+N$(4)) AND N$(4)>S$)+((S$+"        "+N$(5)) AND N$(5)>S$)
340 IF N$(5)<=S$ THEN LET H=12
350 IF N$(4)<=S$ THEN LET H=14
360 IF N$(3)<=S$ THEN LET H=16
370 IF A>2 THEN PRINT AT A-2,B-1;S$;"   "
380 PRINT AT A,B-1;" ";I$;" "
390 FOR M=1 TO (40-I)/4
400 IF S<>2 THEN GOTO 420
410 IF NOT MI THEN GOSUB 1230
420 IF MI THEN GOSUB 1330
430 REM   CONTROLE DO CANHAO
440 LET K$=INKEY$
450 LET X=X+(K$="8")-(K$="5")
460 IF X>29 THEN LET X=29
470 IF X<1 THEN LET X=1
480 PRINT AT 20,X-1;" \ : ";TAB X-1;" \::\:  "
490 IF K$="0" THEN GOTO 540
500 NEXT M
510 IF A>H THEN GOTO 800
520 IF N$(1)=S$ THEN GOTO 1440
530 GOTO 220
540 REM   CONTROLE DO TIRO
550 LET C=5
560 FOR L=18 TO 1 STEP -2
570 PRINT AT L,X;"\ :"
580 IF L>A+2*C-2 THEN GOTO 660
590 IF X-B<1 THEN GOTO 620
600 IF N$(C,X-B+1)<>"O" THEN LET C=C-1
610 IF C=0 THEN LET C=1
620 PRINT AT L,X;" "
630 LET W$=N$(C,X-B+1)
640 IF W$="O" THEN GOTO 690
650 IF W$<>" " THEN GOTO 520
660 PRINT AT L,X;" "
670 NEXT L
680 GOTO 520
690 REM   ACERTOU NO INVASOR
700 LET N$(C,X-B TO X-B+2)="   "
710 PRINT AT A+(C-1)*2,X-1;"\##\##\##"
720 LET P=P+60-C*10
730 IF CH AND P>=1500 THEN GOSUB 1660
740 LET I=I+1
750 PRINT AT A+(C-1)*2,X-1;"   "
760 REM   IMPRIME PLACAR
770 PRINT AT 0,9;P
780 SLOW
790 GOTO 520
800 REM   EXPLOSAO DO CANHAO
810 FOR L=1 TO 5
820 PRINT AT 20,X;"\.'\:.";AT 21,X;"\ :\ '"
830 PRINT AT 20,X;"\':\.'";AT 21,X;"\' \'."
840 NEXT L
850 PRINT AT 20,X;" ";TAB X;"  "
860 IF A<H AND CR THEN GOTO 1380
870 PRINT AT 10,8;" FIM DO JOGO "
880 PAUSE 120
890 POKE 16437,255
900 LET MI=0
910 FAST
920 GOTO 1000
930 LET R=0
940 LET C$="\ :\ :"
950 LET CR=2
960 LET N=1
970 LET CH=N
980 LET X=N
990 RETURN
1000 REM   APRESENTACAO
1010 FAST
1020 CLS
1030 FOR L=0 TO 31
1040 PRINT AT 0,L;"\..";AT 21,L;"\''"
1050 NEXT L
1060 PRINT AT 1,0;
1070 FOR L=1 TO 20
1080 PRINT "\:                               \ :"
1090 NEXT L
1100 SLOW
1110 PRINT AT 1,10;"INVASORES"
1120 PRINT TAB 10;"\''\''\''\''\''\''\''\''\''"
1130 PRINT
1140 PRINT AT 4,3;"VOCE DEVE DESTRUIR "
1150 PRINT AT 5,3;"OS INVASORES"
1160 PRINT AT 6,3;"QUE TENTARAO POUSAR NA TERRA"
1170 PRINT AT 8,3;"CONTROLES DO CANHAO:"
1180 PRINT AT 10,3;"-5:MOVE PARA A ESQUERDA",TAB 3;"-8:MOVE PARA A DIREITA",TAB 3;"-0:DISPARA O ""LASER"""
1190 PRINT AT 20,1;"APERTE QUALQUER TECLA P/ JOGAR"
1200 IF INKEY$="" THEN GOTO 1200
1210 CLS
1220 GOTO 30
1230 REM   CONTROLE DA BOMBA
1240 LET MI=1
1250 LET X1=X
1260 IF X-B<=0 OR X-B>28 THEN GO TO 1360
1270 LET X2=1+A+2*(N$(2,X-B)>" ")+2*(N$(3,X-B)>" ")+2*(N$(4,X-B)>" ")+2*(N$(5,X-B)>" ")
1280 IF X2>=16 OR N$(1,X-B+1)=" " THEN GOTO 1360
1290 FOR Z=X2 TO 20 STEP INT (RND*2)+1
1300 IF ABS (X1-X)>3 THEN GOTO 1360
1310 PRINT AT Z,X1;"\ :"
1320 RETURN
1330 PRINT AT Z,X1;" "
1340 NEXT Z
1350 IF X1=X OR X1=X+1 THEN GOTO 800
1360 LET MI=0
1370 RETURN
1380 LET X=1
1390 LET C$=C$( TO LEN C$-1)
1400 AT 0,0;C$;" "
1410 LET X1=-1
1420 LET CR=CR-1
1430 GOTO 220
1440 REM   FUGA DOS INVASORES
1450 FOR L=19 TO 0 STEP -1
1460 PRINT AT 1_,15;"\..\..";AT L+1,14;\':\;;\;;\:'";AT L+2,14;"    "
1470 IF L/3=INT (L/3) THEN PRINT AT L,20;"S O S"
1480 IF INT (RND*4)=3 THEN GOTO 1570
1490 NEXT L
1500 LET X1=-1
1510 LET MI=0
1520 PAUSE 120
1530 FAST
1540 CLS
1550 SLOW
1560 GOTO 70
1570 PRINT AT L,18;"FALHA DO SISTEMA"
1580 FOR Z=1 TO 5
1590 PRINT AT L,15;"\ .\ .";AT L+1,14;"\ '\: \..\:'";AT L,15;"\' \'.";AT L+1,14;"\. \':\.'\'."
1600 NEXT Z
1610 FOR Z=L TO 0 STEP -1
1620 PRINT AT Z,15;"\.:\:.";AT Z+1,15;"  "
1630 NEXT Z
1640 PRINT AT 1,17;"/";AT 2,5;"VOU DAR NO PE..."
1650 GOTO 1500
1660 REM   CANHAO EXTRA
1670 LET CR=CR+1
1680 LET CH=0
1690 LET C$=C$+"\ :"
1700 PRINT AT 0,0,C$
1710 RETURN

