'- Invasor do Espaço , ZX-81 , Microcomputador Jogos , Página 11
'- status não informado pelo Digitador
'- Digitador desconhecido

10 REM *********************
15 REM * INVASOR DO ESPACO *
20 REM *********************
30 GOTO 490
40 FOR L= U TO 19
50 LET X=Y + (INKEY$ = "8" AND X < 26)- (INKEY$= "5" AND X > 3)
55 REM *** CANHAO ***
60 PRINT AT 19,X;" I$** "
65 REM *** TIRO INVASOR ***
70 LET C = C + A (L)
80 PRINT AT L - 1,C -1;"   "
90 PRINT AT L,C;" O "
92 PRINT AT L,C;"   "
95 REM *** TIRO AO CANHAO ***
100 IF INKEY$="O" THEN GOSUB 160
110 NEXT L
120 LET F=F — 1
130 LET Z=0
140 IF F < 0 OR F = 0 THEN GOTO 895
150 GOTO 790
160 FOR M=17 TO L STEP -2
170 PRINT AT M,X + 1;"."
180 PRINT AT M + 2,X + 1;" "
190 NEXT M
200 PRINT AT M + 2,X + 1;" "
210 IF C = X + 1 THEN GOTO 230
220 RETURN
230 FOR K = 1 TO 20
240 FAST
250 SLOW
260 NEXT K
265 REM *** BUM ***
270 FOR K= 1 TO 5
280 PRINT AT L,C - 1;" BUM ";AT L,C -1;" BUM "; AT L,C - 1;"    "
290 NEXT K
295 REM *** BONUS ***
300 LET Z = 1
310 LET J = 10 * ( INT (1 / L (L + 10) * 1000))
320 PRINT AT L,C - 1;J
330 LET H = C
340 LET P = P + J
350 GOSUB 880
360 IF P > B OR P = B THEN GOTO 390
370 LET U = U + 1
380 GOTO 790
390 LET J = 500 * F
400 PRINT AT 10,16;J
410 FOR K = 1 TO 30
420 PRINT AT 10,10;" BONUS "; AT 10,10;" BONUS ";AT 10,10;" BONUS "
430 NEXT K
440 IF U > 4 THEN LET U = U - 4
450 LET B = B + 3000
460 LET F = F + 1
465 REM A PROXIMA STRING TEM 11 ESPACOS
470 PRINT AT 10,10;"           "
480 GOTO 340
485 REM *** PRIMEIRA TELA ***
490 DIM A(25)
495 LET Z = 0
500 LET B = 3000
505 LET F = 4
510 LET P = 0
520 LET U = 1
530 LET L = 0
540 LET A = 0
550 LET X = 15
560 PRINT AT 3,4:"**INVASOR ESPACO **"
570 PRINT AT 10,1;"PRESS. QUALQUER    TECLA PARA"
575 PRINT AT 12,10;"INICIAR"
600 FOR K = 1 TO 20
610 PRINT AT K,0;"  "; TAB( 31);"  "
620 NEXT K
625 REM AS QUATRO PROXIMAS STRINGS TEM 31 ESPACOS
630 PRINT AT 1,1;"                               "
631 PRINT AT 20,1;"                               "
632 PRINT AT 1,1;"                               "
635 PRINT AT 20,1;"                               "
640 IF INKEY$ = "" THEN GOTO 630
644 REM *** AS ESTRELAS ***
645 PRINT "QUE A FORCA ESTEJA COM VOCE"
650 FOR K = 1 TO 20
660 SCROLL
670 PRINT TAB( RND * 32);"*"
680 SCROLL
690 PRINT TAB( RND * 32);"."
700 SCROLL
710 PRINT TAB( RND * 32);"+"
720 NEXT K
730 SCROLL
735 REM AS TRES PROXIMAS STRINGS TEM 32 ESPACOS CADA UMA
740 PRINT "                                "
750 PRINT "                                "
760 PRINT "                                "
770 SCROLL
780 PRINT "                                "
790 GOSUB 880
800 IF Z = 1 THEN PRINT AT L,H -1;"  "
810 FOR I= 1 TO 20
820 LET A(I) = INT (RND * 3) - 1
830 LET X= X + (INKEY$ = "8" AND X<26) - ( INKEY$ = "5" AND X > 3)
840 PRINT AT 19,X;" I$** "
850 NEXT I
860 LET C = INT ( RND * 20) + 6
870 GOTO 40
875 REM *** QUATRO DE PONTOS ***
880 PRINT AT 21,2;P;" PONTOS";TAB21;F;" FOGUETES"
885 PRINT AT 20,0;"-----------------------------"
890 RETURN
895 GOSUB 880
897 REM *** FINAL DO PROGRAMA ***
900 PRINT AT 10,10;" FIM DE JOGO "; AT 10,10;" FIM DE JOGO "
901 REM *** NOVA PARTIDA ***
905 PRINT AT 12,4;"NOVA PARTIDA TECLE <C>"
910 IF INKEY$ = "C" THEN GOTO 1000
920 GOTO 900
1000 CLS
1010 RUN

