'- Teste seu QI , ZX-81 , Microcomputador Jogos , Página 21
'- status não informado pelo Digitador
'- Digitador desconhecido

1 REM *PARA A LINHA SINCLAIR*
2 REM **** TESTE SEU  QI ****
3 REM ***********************
10 CLS
15 SLOW
20 GOTO 500
30 LET S=0
40 LET T=S
50 LET W=0
60 CLS
70 LET W=W+1
80 PRINT "TENTATIVA NUMERO ";W
90 PRINT "A SEQUENCIA E: "
100 LET T=T+1
110 LET K=INT (RND*100)
120 LET Z=RND
130 REM 30/ DE POSSIBILIDADE DE K SER IGUAL A ZERO
140 IF Z>.5 THEN LET K=0
150 REM 70/ DE POSSIBILIDADE DE K SER NEGATIVO
160 IF Z<.7 THEN LET K=-K
170 LET P=INT (RND*5+1)
180 LET B=RND
190 REM 30/ DE POSSIBILIDADE DE P SER NEGATIVO
200 IF B>.5 THEN LET P=-P
210 REM 70/ DE POSSIBILIDADE DE P SER IGUAL A 1
220 IF B<.7 THEN LET P=1
240 LET Q=INT (RND*3+1)
250 LET E=RND
260 REM 10/ DE POSSIBILIDADE DE Q SER IGUAL A 1/Q
270 IF E<.6 AND Q THEN LET Q=1/Q
280 REM 90/ DE POSSIBILIDADE DE Q SER IGUAL A ZERO
290 IF E<.9 THEN LET Q=0
300 LET N=INT (RND*39+1)
310 FOR I=1 TO 5
320 PRINT N
330 LET N=N*P+K+N*Q
340 NEXT I
350 PRINT "ENTRE COM O PROXIMO NUMERO"
360 INPUT M
370 PRINT
380 IF M=N THEN PRINT "***VOCE ACERTOU***"
390 IF M=N THEN GOTO 420
400 PRINT "SEU NUMERO ERA: ";M
410 PRINT "O NUMERO CERTO E: ";N
420 PRINT
430 LET S=S+(M=N)
440 PRINT "A CONTAGEM E ";S;" EM ";T;" TENTATIVAS"
450 PRINT
460 FOR N=1 TO 100
470 NEXT N
480 IF T=V THEN GOTO 560
490 GOTO 60
500 PRINT TAB 6;"*** TESTE SEU QI ***"
510 PRINT
520 PRINT
530 PRINT "QUANTAS TENTATIVAS VOCE QUER ?"
540 INPUT V
550 GOTO 30
560 PRINT "JA FIZEMOS O NUMERO DE TENTATI- VAS DESEJADAS"
570 IF S=T THEN PRINT "MEUS PARABENS"
580 PRINT "QUER TENTAR DE NOVO S/N"
590 INPUT V$
600 IF V$="S" THEN GOTO 1
610 PRINT
620 PRINT "TCHAU"

