'- Sete e meio , ZX-81 , Microcomputador Jogos , Página 41
'- status não informado pelo Digitador
'- Digitador desconhecido

10 REM
20 REM       SETE E MEIO
30 REM  PARA A LINHA SINCLAIR
40 REM
50 RAND
60 CLS
70 PRINT "VOCE E O COMPUTADOR (CAIXA)","COMECAM COM CR$ 10.000,00",,,"% %B%O%A% %S%O%R%T%E% "
80 PAUSE 300
90 LET CC=10000
100 LET CP=10000
110 CLS
120 LET Z$="A234567---JQK"
130 LET COMP=0
140 LET CA=0
150 LET CF=0
160 LET C$=""
170 LET D$=""
180 LET BAN=0
190 PRINT AT 0,0; "% %S%E%T%E% %E% %M%E%I%O% "
200 PRINT ,,"DIGITE:",,"1 P/ CARTA ABERTA","2 P/ CARTA FECHADA","3 P/ FIM DE JOGADA","4 P/ ESTOURO"
210 GOSUB 990
220 IF D$="" THEN GOSUB 1250
230 INPUT P$
240 IF P$>"4" OR P$<"1" THEN GO TO 230
250 LET P$=P$(1)
260 GOSUB 1090
270 IF P$="2" THEN LET D$(LEN D$)=CHR$ ((CODE C$ (LEN C$))+128)
280 PRINT AT 10,0;D$
290 PRINT AT 18,0;"TOTAL ABERTO=";CA;"    ","TOTAL FECHADO=";CF;"    "
300 GOTO 230
310 LET F1=0
320 IF CF=7.5 THEN LET CA=CF
330 LET L=LEN D$
340 LET P$="1"
350 LET C$=""
360 LET D$=C$
370 LET BAN=1
380 IF CF<>CA THEN GOTO 450
390 GOSUB 1090
400 LET COMP=COMP+B(I,1)
410 PRINT AT 14,0;D$
420 IF COMP>=CA THEN GOTO 760
430 IF COMP>7.5 THEN GOTO 690
440 GOTO 390
450 IF CA>=7.5 THEN GOTO 760
460 GO SUB 1090
470 LET COMP=COMP+B(I,1)
480 PRINT AT 14,0;D$
490 IF COMP>7.5 THEN GOTO 690
500 IF F1=1 THEN GOTO 540
510 IF COMP>=5 AND COMP<=6 THEN LET F1=1
520 IF COMP>6 THEN GOTO 540
530 GOTO 460
540 IF NOT (COMP>=CF AND COMP<=7.5 AND CF<=7.5) THEN GOTO 570
550 LET CC=CC+S
560 GOTO 850
570 IF NOT (COMP<=7.5 AND CF>7.5) THEN GOTO 610
580 LET CP=CP-S
590 LET CC=CC+2*S
600 GOTO 850
610 IF NOT (COMP<=CF AND COMP<=7.5 AND CF<=7.5) THEN GOTO 650
620 LET CP=CP+2*S
630 LET CC=CC-S
640 GOTO 850
650 IF NOT (COMP>7.5 AND CF>7.5) THEN GOTO 680
660 LET CP=CP+3*S
670 LET CC=CC-2*S
680 GOTO 850
690 IF NOT (CF>7.5) THEN GOTO 73O
700 LET CC=CC-2*S
710 LET CP=CP+3*S
720 GOTO 850
730 LET CC=CC-S
740 LET CP=CP+2*S
750 GOTO 850
760 IF NOT (CF>7.5) THEN GOTO 800
770 LET CC=CC+2*S
780 LET CP=CP-S
790 GOTO 850
800 LET CC=CC+S
810 GOTO 850
820 PAUSE 100
830 IF P$="3" THEN GOTO 310
840 GOTO 760
850 PAUSE 200
860 CLS
870 PRINT "CAIXA=";CC;" CR$";AT 1,0;"VOCE=";CP;" CR$"
880 PAUSE 200
890 CLS
900 IF CC<=0 THEN GOTO 940
910 IF CP>0 THEN GOTO 120
920 LET W$="VOCE ESTA"
930 GOTO 950
940 LET W$="EU ESTOU"
950 PRINT W$;" SEM DINHEIRO","QUER JOGAR OUTRA ? (S/N)"
960 INPUT R$
970 IF R$="N" THEN STOP
980 RUN
990 FAST
1000 DIM B(13,2)
1010 FOR F=1 TO 13
1020 LET B(F,2)=0
1030 LET B(F,1)=F
1040 IF F>10 THEN LET B(F,1)=.5
1050 NEXT F
1060 PRINT AT 9,0;"\;;\;;\;;\;;\;;\;;\;;\;;\;;\;;\;;\;;\;;\;;\;;\;;\;;\;;\;;\;;\;;\;;\;;\;;\;;\;;\;;\;;\;;\;;\;;\;;\!!\!!\!!\!!\!!\!!\!!\!!\!!\!!\!!\!!\!!\!!\!!\!!\!!\!!\!!\!!\!!\!!\!!\!!\!!\!!\!!\!!\!!\!!\!!\!!"
1070 PRINT AT 13,0;"\;;\;;\;;\;;\;;\;;\;;\;;\;;\;;\;;\;;\;;\;;\;;\;;\;;\;;\;;\;;\;;\;;\;;\;;\;;\;;\;;\;;\;;\;;\;;\;;\!!\!!\!!\!!\!!\!!\!!\!!\!!\!!\!!\!!\!!\!!\!!\!!\!!\!!\!!\!!\!!\!!\!!\!!\!!\!!\!!\!!\!!\!!\!!\!!"
1080 RETURN
1090 IF P$="3" OR P$="4" THEN GOTO 820
1100 LET I=INT (RND*13)+1
1110 IF I>7 AND I<11 THEN GOTO 1100
1120 IF B(I,2)>=4 THEN GOSUB 1100
1130 LET B(I,2)=B(I,2)+1
1140 LET C$=C$+Z$(I)
1150 LET D$=D$+Z$(1)
1160 IF BAN=1 THEN RETURN
1170 IF P$="2" THEN GOTO 1210
1180 LET CA=CA+B(I,1)
1190 LET CF=CF+B(I,1)
1200 GOTO 1240
1210 LET CA=CF
1220 LET CF=CA+B(I,1)
1230 LET D$=C$
1240 RETURN
1250 LET P$="2"
1260 GOSUB 1090
1270 LET D$=CHR$ (CODE D$+128)
1280 PRINT AT 10,0;D$
1290 PRINT AT 7,0;"APOSTA ?"
1300 INPUT S
1310 IF S>CP THEN LET S=CP
1320 LET CP=CP-S
1330 PRINT AT 7,6;"=";S;" CR$"
1340 RETURN

